NodeB	26
BTS	10
MSC	31
S14_EXP	28
R4G_Cell	4
S14	27
NV1	5
CELL	7
MGW	29
DSL_PORT_GBE	9
SNT	21
eNoB	23
LINK	16
Celula_3G	11
NET_ACCESS_NE	8
CANAL	30
LOCAL	6
BSC	15
S14E	20
Celula_2G	13
TRX	19
NoB	24
SITE	1
RNC	17
CDS	32
X16	18
INTERNACIONAL	14
SNTm	22
MSAN_PORT	25
R3G_Cell	3
R2G_Cell	2
Celula_4G	12
